Proyecto_teclado/Modulos_litex/Teclado/Teclado_TB.vcd
$date
	Sun Nov  2 02:54:08 2025
$end
$version
	Icarus Verilog
$end
$timescale
	1ps
$end
$scope module Teclado_TB $end
$var wire 6 ! tecla [5:0] $end
$var wire 1 " done $end
$var wire 1 # R3 $end
$var wire 1 $ R2 $end
$var wire 1 % R1 $end
$var wire 1 & R0 $end
$var parameter 32 ' PERIOD $end
$var reg 1 ( C0 $end
$var reg 1 ) C1 $end
$var reg 1 * C2 $end
$var reg 1 + C3 $end
$var reg 1 , clk $end
$var reg 1 - init $end
$var reg 1 . reset $end
$scope module Tcl0 $end
$var wire 1 ( C0 $end
$var wire 1 ) C1 $end
$var wire 1 * C2 $end
$var wire 1 + C3 $end
$var wire 1 & R0 $end
$var wire 1 % R1 $end
$var wire 1 $ R2 $end
$var wire 1 # R3 $end
$var wire 1 , clk $end
$var wire 1 " done $end
$var wire 1 - init $end
$var wire 1 . reset $end
$var wire 1 / w_kp_rd $end
$var wire 1 0 w_end $end
$var wire 1 1 w_done $end
$var wire 1 2 w_R3 $end
$var wire 1 3 w_R2 $end
$var wire 1 4 w_R1 $end
$var wire 1 5 w_R0 $end
$var wire 6 6 tecla [5:0] $end
$scope module ctrl_tcl0 $end
$var wire 1 ( c0 $end
$var wire 1 ) c1 $end
$var wire 1 * c2 $end
$var wire 1 + c3 $end
$var wire 1 , clk $end
$var wire 1 - init $end
$var wire 1 . reset $end
$var wire 1 / rd_flag $end
$var wire 1 0 end_flag $end
$var parameter 3 7 READ $end
$var parameter 3 8 Row0 $end
$var parameter 3 9 Row1 $end
$var parameter 3 : Row2 $end
$var parameter 3 ; Row3 $end
$var parameter 3 < START $end
$var reg 3 = cnt [0:2] $end
$var reg 1 1 done $end
$var reg 3 > prev_row [2:0] $end
$var reg 1 5 r0 $end
$var reg 1 4 r1 $end
$var reg 1 3 r2 $end
$var reg 1 2 r3 $end
$var reg 3 ? state [2:0] $end
$upscope $end
$scope module data_tcl0 $end
$var wire 1 ( C0 $end
$var wire 1 ) C1 $end
$var wire 1 * C2 $end
$var wire 1 + C3 $end
$var wire 1 5 R0 $end
$var wire 1 4 R1 $end
$var wire 1 3 R2 $end
$var wire 1 2 R3 $end
$var wire 1 , clk $end
$var wire 1 1 done $end
$var wire 1 - init $end
$var wire 1 . reset $end
$var reg 7 @ Antirebote [6:0] $end
$var reg 6 A Prev_tecla [5:0] $end
$var reg 1 0 end_flag $end
$var reg 6 B next_tecla [5:0] $end
$var reg 1 / rd_flag $end
$var reg 6 C tecla [5:0] $end
$var reg 1 D unique_flag $end
$upscope $end
$upscope $end
$scope begin TEST_CASE $end
$upscope $end
$upscope $end
$enddefinitions $end
$comment Show the parameter values. $end
$dumpall
b0 <
b100 ;
b11 :
b10 9
b1 8
b101 7
b10100 '
$end
#0
$dumpvars
xD
bx C
b0 B
bx A
bx @
b0 ?
bx >
bx =
bx 6
05
04
03
02
11
x0
x/
0.
0-
0,
0+
0*
0)
0(
0&
0%
0$
0#
1"
bx !
$end
#10000
0/
00
b10000 A
b0 @
1,
#20000
0D
b10000 !
b10000 6
b10000 C
b0 =
b101 >
1.
0,
#30000
1,
#40000
0.
0,
#50000
1-
1,
#60000
0"
01
1&
15
b1 ?
0,
#70000
1,
#80000
b101 =
b0 >
b101 ?
0,
#90000
1D
1,
0-
#100000
b100 =
0,
#110000
b0 !
b0 6
b0 C
b0 A
1,
#120000
b11 =
0,
#130000
1,
#140000
b10 =
0,
#150000
1,
#160000
b1 =
0,
#170000
b110001 !
b110001 6
b110001 C
b110001 A
1,
b110001 B
1(
#180000
b0 =
0,
#190000
1/
b1 @
1,
#200000
0,
#210000
0/
b0 !
b0 6
b0 C
b0 A
b0 @
1,
b0 B
0(
#220000
1%
14
0&
05
b10 ?
0,
#230000
b110101 !
b110101 6
b110101 C
b110101 A
1,
b110101 B
1)
#240000
b101 =
b1 >
b101 ?
0,
#250000
1/
b1 @
1,
b110101 B
1*
#260000
b100 =
0,
#270000
b10 @
1,
#280000
b11 =
0,
#290000
0/
b0 !
b0 6
b0 C
b0 A
b0 @
1,
b0 B
0*
0)
#300000
b10 =
0,
#310000
1,
#320000
b1 =
0,
#330000
1,
#340000
b0 =
0,
#350000
1,
#360000
1$
13
0%
04
b11 ?
0,
#370000
1,
#380000
b101 =
b10 >
b101 ?
0,
#390000
1,
#400000
b100 =
0,
#410000
b110111 !
b110111 6
b110111 C
b110111 A
1,
b110111 B
1(
#420000
b11 =
0,
#430000
1/
b1 @
1,
#440000
b10 =
0,
#450000
b10 @
1,
#460000
b1 =
0,
#470000
b11 @
1,
#480000
b0 =
0,
#490000
b100 @
1,
#500000
0,
#510000
b101 @
1,
#520000
0,
#530000
b110 @
1,
#540000
0,
#550000
b111 @
1,
#560000
0,
#570000
b1000 @
1,
#580000
0,
#590000
b1001 @
1,
#600000
0,
#610000
b1010 @
1,
#620000
0,
#630000
b1011 @
1,
#640000
0,
#650000
b1100 @
1,
#660000
0,
#670000
b1101 @
1,
#680000
0,
#690000
b1110 @
1,
#700000
0,
#710000
b1111 @
1,
#720000
0,
#730000
b10000 @
1,
#740000
0,
#750000
b10001 @
1,
#760000
0,
#770000
b10010 @
1,
#780000
0,
#790000
b10011 @
1,
#800000
0,
#810000
b10100 @
1,
#820000
0,
#830000
b10101 @
1,
#840000
0,
#850000
b10110 @
1,
#860000
0,
#870000
b10111 @
1,
#880000
0,
#890000
b11000 @
1,
#900000
0,
#910000
b11001 @
1,
#920000
0,
#930000
b11010 @
1,
#940000
0,
#950000
b11011 @
1,
#960000
0,
#970000
b11100 @
1,
#980000
0,
#990000
b11101 @
1,
#1000000
0,
#1010000
b11110 @
1,
#1020000
0,
#1030000
b11111 @
1,
#1040000
0,
#1050000
b100000 @
1,
#1060000
0,
#1070000
b100001 @
1,
#1080000
0,
#1090000
b100010 @
1,
#1100000
0,
#1110000
b100011 @
1,
#1120000
0,
#1130000
b100100 @
1,
#1140000
0,
#1150000
b100101 @
1,
#1160000
0,
#1170000
b100110 @
1,
#1180000
0,
#1190000
b100111 @
1,
#1200000
0,
#1210000
b101000 @
1,
#1220000
0,
#1230000
b101001 @
1,
#1240000
0,
#1250000
b101010 @
1,
#1260000
0,
#1270000
b101011 @
1,
#1280000
0,
#1290000
b101100 @
1,
#1300000
0,
#1310000
b101101 @
1,
#1320000
0,
#1330000
b101110 @
1,
#1340000
0,
#1350000
b101111 @
1,
#1360000
0,
#1370000
b110000 @
1,
#1380000
0,
#1390000
b110001 @
1,
#1400000
0,
#1410000
b110010 @
1,
#1420000
0,
#1430000
b110011 @
1,
#1440000
0,
#1450000
b110100 @
1,
#1460000
0,
#1470000
b110101 @
1,
#1480000
0,
#1490000
b110110 @
1,
#1500000
0,
#1510000
b110111 @
1,
#1520000
0,
#1530000
b111000 @
1,
#1540000
0,
#1550000
b111001 @
1,
#1560000
0,
#1570000
b111010 @
1,
#1580000
0,
#1590000
b111011 @
1,
#1600000
0,
#1610000
b111100 @
1,
#1620000
0,
#1630000
b111101 @
1,
#1640000
0,
#1650000
b111110 @
1,
#1660000
0,
#1670000
b111111 @
1,
#1680000
0,
#1690000
b1000000 @
1,
#1700000
0,
#1710000
b1000001 @
1,
#1720000
0,
#1730000
b1000010 @
1,
#1740000
0,
#1750000
b1000011 @
1,
#1760000
0,
#1770000
b1000100 @
1,
#1780000
0,
#1790000
b1000101 @
1,
#1800000
0,
#1810000
b1000110 @
1,
#1820000
0,
#1830000
b1000111 @
1,
#1840000
0,
#1850000
b1001000 @
1,
#1860000
0,
#1870000
b1001001 @
1,
#1880000
0,
#1890000
b1001010 @
1,
#1900000
0,
#1910000
b1001011 @
1,
#1920000
0,
#1930000
b1001100 @
1,
#1940000
0,
#1950000
b1001101 @
1,
#1960000
0,
#1970000
b1001110 @
1,
#1980000
0,
#1990000
b1001111 @
1,
#2000000
0,
#2010000
b1010000 @
1,
#2020000
0,
#2030000
b1010001 @
1,
#2040000
0,
#2050000
b1010010 @
1,
#2060000
0,
#2070000
b1010011 @
1,
#2080000
0,
#2090000
b1010100 @
1,
#2100000
0,
#2110000
b1010101 @
1,
#2120000
0,
#2130000
b1010110 @
1,
#2140000
0,
#2150000
b1010111 @
1,
#2160000
0,
#2170000
b1011000 @
1,
#2180000
0,
#2190000
b1011001 @
1,
#2200000
0,
#2210000
b1011010 @
1,
#2220000
0,
#2230000
b1011011 @
1,
#2240000
0,
#2250000
b1011100 @
1,
#2260000
0,
#2270000
b1011101 @
1,
#2280000
0,
#2290000
b1011110 @
1,
#2300000
0,
#2310000
b1011111 @
1,
#2320000
0,
#2330000
b1100000 @
1,
#2340000
0,
#2350000
b1100001 @
1,
#2360000
0,
#2370000
b1100010 @
1,
#2380000
0,
#2390000
b1100011 @
1,
#2400000
0,
#2410000
b1100100 @
1,
#2420000
0,
#2430000
10
b1100101 @
1,
#2440000
b0 B
1"
11
0$
03
b0 ?
0,
#2450000
0/
00
b10000 A
b0 @
1,
#2460000
b110001 B
0"
01
1&
15
b101 >
b1 ?
0,
1-
#2470000
0D
b0 B
1,
#2480000
b101 =
b0 >
b101 ?
0,
#2490000
1,
#2500000
b100 =
0,
0-
#2510000
1,
#2520000
b11 =
0,
#2530000
1,
#2540000
b10 =
0,
#2550000
1,
#2560000
b1 =
0,
#2570000
1,
#2580000
b0 =
0,
#2590000
1,
#2600000
b110100 B
1%
14
0&
05
b10 ?
0,
#2610000
1,
#2620000
b101 =
b1 >
b101 ?
0,
#2630000
1,
#2640000
b100 =
0,
#2650000
1,
#2660000
b11 =
0,
#2670000
1,
#2680000
b10 =
0,
#2690000
1,
#2700000
b1 =
0,
#2710000
1,
#2720000
b0 =
0,
#2730000
1,
#2740000
b110111 B
1$
13
0%
04
b11 ?
0,
#2750000
1,
#2760000
b101 =
b10 >
b101 ?
0,
#2770000
1,
#2780000
b100 =
0,
#2790000
1,
#2800000
b11 =
0,
#2810000
1,
#2820000
b10 =
0,
#2830000
1,
#2840000
b1 =
0,
#2850000
1,
#2860000
b0 =
0,
#2870000
1,
#2880000
b101010 B
1#
12
0$
03
b100 ?
0,
#2890000
1,
#2900000
b101 =
b11 >
b101 ?
0,
#2910000
1,
#2920000
b100 =
0,
#2930000
1,
#2940000
b11 =
0,
#2950000
1,
#2960000
b10 =
0,
#2970000
1,
#2980000
b1 =
0,
#2990000
1,
#3000000
b0 =
0,
#3010000
1,
#3020000
b110001 B
0#
02
1&
15
b1 ?
0,
#3030000
1,
#3040000
b101 =
b0 >
b101 ?
0,
#3050000
1,
#3060000
b100 =
0,
#3070000
1,
#3080000
b11 =
0,
#3090000
1,
#3100000
b10 =
0,
#3110000
1,
#3120000
b1 =
0,
#3130000
1,
#3140000
b0 =
0,
#3150000
1,
#3160000
b110100 B
1%
14
0&
05
b10 ?
0,
#3170000
1,
#3180000
b101 =
b1 >
b101 ?
0,
#3190000
1,
#3200000
b100 =
0,
#3210000
1,
#3220000
b11 =
0,
#3230000
1,
#3240000
b10 =
0,
#3250000
1,
#3260000
b1 =
0,
#3270000
1,
#3280000
b0 =
0,
#3290000
1,
#3300000
b110111 B
1$
13
0%
04
b11 ?
0,
#3310000
1,
#3320000
b101 =
b10 >
b101 ?
0,
#3330000
1,
#3340000
b100 =
0,
#3350000
1,
#3360000
b11 =
0,
#3370000
1,
#3380000
b10 =
0,
#3390000
1,
#3400000
b1 =
0,
#3410000
1,
#3420000
b0 =
0,
#3430000
1,
#3440000
b101010 B
1#
12
0$
03
b100 ?
0,
#3450000
1,
#3460000
b101 =
b11 >
b101 ?
0,
#3470000
1,
#3480000
b100 =
0,
#3490000
1,
#3500000
b11 =
0,
#3510000
1,
#3520000
b10 =
0,
#3530000
1,
#3540000
b1 =
0,
#3550000
1,
#3560000
b0 =
0,
#3570000
1,
#3580000
b110001 B
0#
02
1&
15
b1 ?
0,
#3590000
1,
#3600000
b101 =
b0 >
b101 ?
0,
#3610000
1,
#3620000
b100 =
0,
#3630000
1,
#3640000
b11 =
0,
#3650000
1,
#3660000
b10 =
0,
#3670000
1,
#3680000
b1 =
0,
#3690000
1,
#3700000
b0 =
0,
#3710000
1,
#3720000
b110100 B
1%
14
0&
05
b10 ?
0,
#3730000
1,
#3740000
b101 =
b1 >
b101 ?
0,
#3750000
1,
#3760000
b100 =
0,
#3770000
1,
#3780000
b11 =
0,
#3790000
1,
#3800000
b10 =
0,
#3810000
1,
#3820000
b1 =
0,
#3830000
1,
#3840000
b0 =
0,
#3850000
1,
#3860000
b110111 B
1$
13
0%
04
b11 ?
0,
#3870000
1,
#3880000
b101 =
b10 >
b101 ?
0,
#3890000
1,
#3900000
b100 =
0,
#3910000
1,
#3920000
b11 =
0,
#3930000
1,
#3940000
b10 =
0,
#3950000
1,
#3960000
b1 =
0,
#3970000
1,
#3980000
b0 =
0,
#3990000
1,
#4000000
b101010 B
1#
12
0$
03
b100 ?
0,
